[
    {
        "name": "Naruto UZUMAKI",
        "photo": ".\/images\/naruto.jpg",
        "characteristics": "Demon renard"
    },
    {
        "name": "Sasuke UCHIHA",
        "photo": ".\/images\/sasuke.png",
        "characteristics": "Sharingan"
    },
    {
        "name": "Hinata HYUGA",
        "photo": ".\/images\/hinata.png",
        "characteristics": "Byakugan"
    },
    {
        "name": "PIECES",
        "photo": "images\/IMG_9962.JPG",
        "characteristics": "ccc"
    },
    {
        "name": "test",
        "photo": "images\/IMG_9962.JPG",
        "characteristics": "jha"
    }
]